…
``` r
set.seed(101)
d.rd <- tibble(
  x = rep(1:100, 3),
  f = factor(rep(1:3, each=100)),
  y = c(cumsum(rnorm(100)), cumsum(rnorm(100)), cumsum(rnorm(100)))
)
d.rd
```

    ## # A tibble: 300 × 3
    ##        x f           y
    ##    <int> <fct>   <dbl>
    ##  1     1 1     -0.326 
    ##  2     2 1      0.226 
    ##  3     3 1     -0.449 
    ##  4     4 1     -0.234 
    ##  5     5 1      0.0766
    ##  6     6 1      1.25  
    ##  7     7 1      1.87  
    ##  8     8 1      1.76  
    ##  9     9 1      2.67  
    ## 10    10 1      2.45  
    ## # ℹ 290 more rows
…
