…
  number_of_simulations = num_sim, 
  S = S, 
  K = K, 
  sigma_rel = sigma_rel, 
  sigma_imp = sigma_imp, 
  r_val = r_val, 
  q_val = q_val, 
  timestep = timestep, 
  days = days, 
  p1 = p1, 
  p2 = p2
))
```

    ## # A tibble: 1,000 × 6
    ##    option_PnL gamma_PnL delta_PnL theta_PnL vega_PnL vega0
    ##         <dbl>     <dbl>     <dbl>     <dbl>    <dbl> <dbl>
    ##  1      5.96      2.24      5.12     -1.34         0  11.3
    ##  2      3.69      1.94      3.54     -1.94         0  11.3
    ##  3     -0.648     1.81     -0.253    -2.24         0  11.3
    ##  4     -3.38      1.77     -3.12     -2.07         0  11.3
    ##  5     -3.23      1.26     -1.80     -2.19         0  11.3
    ##  6     -3.38      0.795    -3.06     -1.16         0  11.3
    ##  7     -3.38      1.27     -3.35     -1.31         0  11.3
    ##  8      7.41      1.25      6.86     -0.666        0  11.3
    ##  9     -3.38      0.979    -2.54     -1.86         0  11.3
    ## 10     12.7       2.03     12.7      -1.75         0  11.3
    ## # ℹ 990 more rows
…
  number_of_simulations = num_sim, 
  S = S, 
  K = K, 
  sigma_rel = sigma_rel, 
  sigma_imp = 0.5, 
  r_val = r_val, 
  q_val = q_val, 
  timestep = timestep, 
  days = days, 
  p1 = p1, 
  p2 = p2
))
```

    ## # A tibble: 1,000 × 6
    ##    option_PnL gamma_PnL delta_PnL theta_PnL vega_PnL vega0
    ##         <dbl>     <dbl>     <dbl>     <dbl>    <dbl> <dbl>
    ##  1     -2.60      1.09      0.368     -4.00        0  11.3
    ##  2     -3.23      1.15     -0.116     -4.07        0  11.3
    ##  3     -5.64      1.80     -3.58      -4.05        0  11.3
    ##  4     -5.64      1.97     -4.06      -3.74        0  11.3
    ##  5     -5.64      1.25     -3.56      -3.48        0  11.3
    ##  6     -5.64      1.09     -1.54      -4.49        0  11.3
    ##  7     -5.09      1.10     -1.05      -4.50        0  11.3
    ##  8     -5.64      0.761    -2.16      -4.28        0  11.3
    ##  9     -0.446     1.28      2.34      -4.19        0  11.3
    ## 10     -5.64      1.22     -1.65      -4.51        0  11.3
    ## # ℹ 990 more rows
…
